<svg xmlns="http://www.w3.org/2000/svg" width="44.4" height="44.4" viewBox="0 0 44.4 44.4">
  <g id="sendbtn" transform="translate(-634.3 -3801)">
    <ellipse id="sendbtn-2" data-name="sendbtn" cx="22.2" cy="22.2" rx="22.2" ry="22.2" transform="translate(634.3 3801)" fill="#111"/>
    <path id="send_1_" data-name="send (1)" d="M22.311,0,0,12.55l7.13,2.641,11-10.31L9.763,16.166l.007,0-.008,0v6.145l4-4.665,5.065,1.876Z" transform="translate(644.149 3812)" fill="#fff"/>
  </g>
</svg>
